<?xml version="1.0" encoding="UTF-8"?>

<!-- generated on Sun Oct 25 19:44:41 2020 by Eclipse SUMO sumo Version 1.7.0
<configuration xmlns:xsi="http://www.w3.org/2001/XMLSchema-instance" xsi:noNamespaceSchemaLocation="http://sumo.dlr.de/xsd/sumoConfiguration.xsd">

    <input>
        <net-file value="./src/traci/examples/grid/7x7_160_Veiculos/7x7.net.xml"/>
        <route-files value="./src/traci/examples/grid/7x7_160_Veiculos/routes160.xml"/>
    </input>

    <output>
        <summary-output value="./src/traci/examples/grid/7x7_160_Veiculos/../output/7x7.160.20.0.internal.mobility.summary.astar.xml"/>
        <tripinfo-output value="./src/traci/examples/grid/7x7_160_Veiculos/../output/7x7.160.20.0.internal.mobility.tripinfo.astar.xml"/>
        <vehroute-output value="./src/traci/examples/grid/7x7_160_Veiculos/../output/7x7.160.20.0.internal.mobility.vehroute.xml"/>
    </output>

    <time>
        <begin value="0"/>
        <end value="1500"/>
        <step-length value="0.100000"/>
    </time>

    <report>
        <verbose value="true"/>
        <no-warnings value="false"/>
        <error-log value="./src/traci/examples/grid/7x7_160_Veiculos/SumoError.log"/>
        <no-step-log value="true"/>
    </report>

    <emissions>
        <device.emissions.probability value="1"/>
    </emissions>

    <traci_server>
        <remote-port value="3400"/>
    </traci_server>

    <random_number>
        <seed value="10"/>
    </random_number>

    <gui_only>
        <quit-on-end value="true"/>
        <start value="true"/>
        <tracker-interval value="0.1"/>
    </gui_only>

</configuration>
-->

<summary xmlns:xsi="http://www.w3.org/2001/XMLSchema-instance" xsi:noNamespaceSchemaLocation="http://sumo.dlr.de/xsd/summary_file.xsd">
    <step time="0.00" loaded="160" inserted="142" running="142" waiting="18" ended="0" arrived="0" collisions="0" teleports="0" halting="0" stopped="0" meanWaitingTime="0.00" meanTravelTime="-1.00" meanSpeed="13.35" meanSpeedRelative="0.96" duration="1603665881039"/>
    <step time="0.10" loaded="160" inserted="149" running="149" waiting="11" ended="0" arrived="0" collisions="0" teleports="0" halting="0" stopped="0" meanWaitingTime="0.00" meanTravelTime="-1.00" meanSpeed="13.30" meanSpeedRelative="0.96" duration="1603665896471"/>
</summary>
